[
    {   
        "id":1,
        "Reportname":"Annual",
        "ModifiedOn":"1st September",
        "ModifiedBy":"Jaqueline",
        "ScheduledBy":"Jaqueline"
     },
     {
         "id":2,
         "Reportname":"Quarter",
         "ModifiedOn":"8th September",
         "ModifiedBy":"Jaqueline",
         "ScheduledBy":"Jaqueline"
     },
     {
         "id":3,
         "Reportname":"Weekly",
         "ModifiedOn":"10th September",
         "ModifiedBy":"Jaqueline",
         "ScheduledBy":"Jaqueline"
     },
     {
         "id":4,
         "Reportname":"Annual",
         "ModifiedOn":"1st October",
         "ModifiedBy":"Jaqueline",
         "ScheduledBy":"Jaqueline"
     },
     {
         "id":5,
         "Reportname":"Annual",
         "ModifiedOn":"1st September",
         "ModifiedBy":"Jaqueline",
         "ScheduledBy":"Jaqueline"
     },
     {
         "id":6,
         "Reportname":"Annual",
         "ModifiedOn":"1st September",
         "ModifiedBy":"Jaqueline",
         "ScheduledBy":"Jaqueline"
     }
     
 ]
